%!PS-Adobe-3.0 EPSF-3.0
%%Creator: cairo 1.13.1 (http://cairographics.org)
%%CreationDate: Sat Oct 24 16:35:01 2015
%%Pages: 1
%%DocumentData: Clean7Bit
%%LanguageLevel: 2
%%BoundingBox: 0 -1 166 29
%%EndComments
%%BeginProlog
save
50 dict begin
/q { gsave } bind def
/Q { grestore } bind def
/cm { 6 array astore concat } bind def
/w { setlinewidth } bind def
/J { setlinecap } bind def
/j { setlinejoin } bind def
/M { setmiterlimit } bind def
/d { setdash } bind def
/m { moveto } bind def
/l { lineto } bind def
/c { curveto } bind def
/h { closepath } bind def
/re { exch dup neg 3 1 roll 5 3 roll moveto 0 rlineto
      0 exch rlineto 0 rlineto closepath } bind def
/S { stroke } bind def
/f { fill } bind def
/f* { eofill } bind def
/n { newpath } bind def
/W { clip } bind def
/W* { eoclip } bind def
/BT { } bind def
/ET { } bind def
/pdfmark where { pop globaldict /?pdfmark /exec load put }
    { globaldict begin /?pdfmark /pop load def /pdfmark
    /cleartomark load def end } ifelse
/BDC { mark 3 1 roll /BDC pdfmark } bind def
/EMC { mark /EMC pdfmark } bind def
/cairo_store_point { /cairo_point_y exch def /cairo_point_x exch def } def
/Tj { show currentpoint cairo_store_point } bind def
/TJ {
  {
    dup
    type /stringtype eq
    { show } { -0.001 mul 0 cairo_font_matrix dtransform rmoveto } ifelse
  } forall
  currentpoint cairo_store_point
} bind def
/cairo_selectfont { cairo_font_matrix aload pop pop pop 0 0 6 array astore
    cairo_font exch selectfont cairo_point_x cairo_point_y moveto } bind def
/Tf { pop /cairo_font exch def /cairo_font_matrix where
      { pop cairo_selectfont } if } bind def
/Td { matrix translate cairo_font_matrix matrix concatmatrix dup
      /cairo_font_matrix exch def dup 4 get exch 5 get cairo_store_point
      /cairo_font where { pop cairo_selectfont } if } bind def
/Tm { 2 copy 8 2 roll 6 array astore /cairo_font_matrix exch def
      cairo_store_point /cairo_font where { pop cairo_selectfont } if } bind def
/g { setgray } bind def
/rg { setrgbcolor } bind def
/d1 { setcachedevice } bind def
%%EndProlog
%%BeginSetup
%%EndSetup
%%Page: 1 1
%%BeginPageSetup
%%PageBoundingBox: 0 -1 166 29
%%EndPageSetup
q 0 -1 166 30 rectclip q
0.611765 0.588235 0.592157 rg
3.766 0.427 m 3.457 0.739 3.199 1.591 3.199 2.321 c 3.199 3.079 2.598 3.626
 1.801 3.591 c 0.258 3.52 0 3.923 0 6.399 c 0 7.403 0.645 8.243 1.602 8.493
 c 2.871 8.825 3.203 9.595 3.219 12.22 c 3.25 18.384 8.383 25.79 14.141 
27.981 c 16.668 28.942 23.332 28.942 25.859 27.981 c 31.633 25.786 36.75
 18.384 36.781 12.18 c 36.797 9.544 37.141 8.727 38.398 8.325 c 39.539 7.966
 40 7.114 40 5.38 c 40 3.356 39.734 3.009 38.445 3.345 c 37.301 3.645 36.824
 3.298 36.645 2.04 c 36.473 0.841 35.738 0.251 34.199 0.071 c 32.176 -0.159
 32 0.04 32 2.579 c 32 4.641 31.492 5.673 30 6.653 c 28.02 7.95 28 7.938
 28 5.544 c 28 3.399 27.734 3.126 25.637 3.126 c 23.277 3.126 23.273 3.13
 23.035 8.524 c 22.801 13.927 l 17.199 13.927 l 16.961 8.477 l 16.727 3.032
 l 14.164 3.278 l 11.895 3.497 11.625 3.778 11.832 5.727 c 11.957 6.934 
11.742 7.927 11.355 7.927 c 10.016 7.927 8.133 5.118 7.867 2.727 c 7.68 
1.032 7.121 0.259 5.969 0.091 c 5.07 -0.038 4.078 0.114 3.766 0.427 c h
14.27 13.661 m 17.148 19.423 22.98 19.231 25.887 13.282 c 27.582 9.809 
28.402 9.872 27.625 13.411 c 26.469 18.684 20.52 21.544 15.879 19.063 c 
14.211 18.169 12 13.809 12 11.419 c 12 9.708 12.582 10.286 14.27 13.661 
c h
16.199 21.876 m 19.957 23.403 20.043 23.403 23.801 21.872 c 26.934 20.595
 27.934 19.649 29.5 16.493 c 30.547 14.384 31.578 12.837 31.793 13.052 c
 32.551 13.813 28.746 20.348 26.668 21.856 c 25.508 22.696 22.902 23.528
 20.879 23.704 c 14.652 24.247 9.766 20.415 8.41 13.927 c 8.055 12.231 8.566
 12.821 10.152 15.927 c 12.062 19.669 12.969 20.559 16.199 21.876 c h
58.934 1.259 m 58.641 1.552 58.398 7.684 58.398 14.884 c 58.398 26.266 
58.57 28.04 59.707 28.477 c 60.43 28.755 61.598 28.614 62.309 28.169 c 63.387
 27.489 63.637 25.352 63.82 15.149 c 63.973 6.829 63.75 2.587 63.125 1.833
 c 62.156 0.669 59.84 0.352 58.934 1.259 c h
71.508 1.88 m 71.266 2.512 71.191 3.684 71.344 4.477 c 71.59 5.778 72.746
 5.95 82.609 6.149 c 93.602 6.372 l 93.602 10.649 l 93.602 15.626 94.898
 17.372 97.551 15.954 c 98.988 15.184 99.199 14.313 99.199 9.153 c 99.199
 0.641 99.348 0.727 84.316 0.727 c 74.285 0.727 71.867 0.942 71.508 1.88
 c h
105.105 1.88 m 104.863 2.512 104.789 3.684 104.941 4.477 c 105.195 5.794
 106.41 5.946 118.098 6.145 c 128.605 6.325 131.152 6.149 131.941 5.196 
c 132.664 4.325 132.688 3.606 132.027 2.376 c 131.191 0.813 130.457 0.727
 118.348 0.727 c 107.941 0.727 105.469 0.942 105.105 1.88 c h
138.477 1.833 m 137.848 2.591 137.629 6.954 137.777 15.634 c 138 28.325
 l 151.34 28.544 l 164.227 28.755 164.699 28.708 165.207 27.106 c 166.281
 23.716 164.547 23.126 153.504 23.126 c 143.199 23.126 l 143.199 6.325 l
 153.945 6.325 l 164.074 6.325 164.723 6.231 165.211 4.688 c 166.316 1.212
 164.648 0.727 151.602 0.727 c 142.184 0.727 139.188 0.977 138.477 1.833
 c h
71.734 12.458 m 70.77 13.423 71.141 26.747 72.16 27.766 c 72.824 28.43 
76.984 28.727 85.707 28.727 c 97.688 28.727 98.316 28.645 98.812 27.087 
c 99.883 23.72 98.133 23.126 87.102 23.126 c 76.801 23.126 l 76.801 17.524
 l 81.172 17.524 l 85.969 17.524 87.805 16.009 86.293 13.305 c 85.66 12.173
 84.336 11.927 78.895 11.927 c 75.25 11.927 72.027 12.165 71.734 12.458 
c h
105.801 12.454 m 105.25 12.677 104.801 13.723 104.801 14.778 c 104.801 
17.184 106.586 17.688 114.016 17.368 c 119.211 17.141 119.617 16.993 119.871
 15.216 c 120.02 14.165 119.66 13.001 119.07 12.63 c 117.934 11.911 107.492
 11.774 105.801 12.454 c h
105.73 23.829 m 105.141 24.2 104.781 25.368 104.93 26.415 c 105.199 28.325
 l 117.895 28.548 l 126.574 28.696 130.938 28.477 131.691 27.848 c 133.121
 26.665 133.09 25.93 131.543 24.384 c 130.512 23.352 128.164 23.13 118.543
 23.137 c 112.086 23.145 106.32 23.454 105.73 23.829 c h
105.73 23.829 m f
0.764706 0.662745 0.231373 rg
3.199 2.325 m 3.199 3.391 2.668 3.927 1.602 3.927 c 0.426 3.927 0 4.458
 0 5.927 c 0 7.341 0.434 7.927 1.488 7.927 c 2.703 7.927 3.059 8.731 3.43
 12.329 c 4.02 18.032 6.73 22.845 11.07 25.891 c 14.102 28.02 15.215 28.325
 19.926 28.325 c 24.457 28.325 25.844 27.977 28.613 26.145 c 32.93 23.286
 35.984 17.993 36.566 12.364 c 36.941 8.735 37.297 7.927 38.512 7.927 c 
39.566 7.927 40 7.341 40 5.927 c 40 4.458 39.574 3.927 38.398 3.927 c 37.332
 3.927 36.801 3.391 36.801 2.325 c 36.801 1.083 36.266 0.727 34.398 0.727
 c 32.23 0.727 31.996 0.977 31.977 3.325 c 31.957 5.149 31.359 6.356 29.977
 7.364 c 28 8.802 l 28 6.364 l 28 4.188 27.742 3.927 25.602 3.927 c 23.211
 3.927 23.199 3.942 23.199 8.567 c 23.199 13.368 22.305 15.126 19.859 15.126
 c 17.531 15.126 15.801 11.61 16.125 7.54 c 16.402 4.059 16.332 3.927 14.207
 3.927 c 12.281 3.927 12 4.235 12 6.364 c 12 8.802 l 10.023 7.364 l 8.641
 6.356 8.043 5.149 8.023 3.325 c 8.004 0.977 7.77 0.727 5.602 0.727 c 3.734
 0.727 3.199 1.083 3.199 2.325 c h
14.305 13.095 m 17.012 19.216 22.988 19.22 25.609 13.102 c 26.453 11.134
 27.336 9.524 27.57 9.524 c 27.809 9.524 28 10.759 28 12.266 c 28 15.669
 24.879 19.606 21.605 20.325 c 17.215 21.29 12.703 17.591 11.598 12.126 
c 10.828 8.305 12.441 8.887 14.305 13.095 c h
10.402 15.356 m 13.82 24.614 25.672 24.583 29.785 15.305 c 31.625 11.149
 32.672 11.872 31.211 16.294 c 29.441 21.661 22.672 25.333 17.293 23.848
 c 12.059 22.403 8 17.497 8 12.618 c 8 10.27 8.902 11.302 10.402 15.356 
c h
59.359 1.684 m 57.902 3.145 58.027 26.618 59.5 27.841 c 61.16 29.22 62.961
 28.114 63.512 25.376 c 63.781 24.028 64 18.497 64 13.083 c 64 5.2 63.75
 2.989 62.742 1.981 c 61.234 0.473 60.625 0.423 59.359 1.684 c h
71.992 1.938 m 71.191 2.903 71.121 3.622 71.73 4.595 c 72.434 5.708 74.301
 5.962 83.047 6.149 c 93.523 6.372 l 93.762 10.95 l 93.984 15.262 94.125
 15.54 96.172 15.778 c 97.941 15.981 98.441 15.641 98.867 13.938 c 99.613
 10.977 98.848 3.251 97.695 2.098 c 97.047 1.45 92.805 1.04 84.906 0.872
 c 74.688 0.649 72.938 0.794 71.992 1.938 c h
106.066 1.778 m 105.273 2.356 104.762 3.528 104.926 4.38 c 105.203 5.833
 106.008 5.927 118.398 5.927 c 130.793 5.927 131.598 5.833 131.875 4.38 
c 132.449 1.399 129.965 0.727 118.398 0.727 c 110.656 0.727 107.09 1.032
 106.066 1.778 c h
138.133 2.059 m 137.84 2.352 137.602 8.255 137.602 15.173 c 137.602 25.907
 137.785 27.825 138.867 28.239 c 141.336 29.188 163.629 28.778 164.641 27.766
 c 165.906 26.501 165.852 25.891 164.344 24.384 c 163.336 23.376 161.113
 23.126 153.145 23.126 c 143.199 23.126 l 143.199 6.325 l 153.504 6.325 
l 164.242 6.325 166.238 5.723 165.129 2.829 c 164.695 1.7 162.898 1.524 
151.648 1.524 c 144.508 1.524 138.426 1.766 138.133 2.059 c h
72.012 13.114 m 70.723 14.665 71.23 25.876 72.652 27.302 c 74.074 28.727
 96.41 29.243 98.047 27.887 c 99.52 26.665 99.5 25.938 97.941 24.384 c 96.934
 23.376 94.715 23.126 86.742 23.126 c 76.801 23.126 l 76.801 20.325 l 76.801
 17.548 76.828 17.524 80.336 17.524 c 85.062 17.524 86.398 16.907 86.398
 14.727 c 86.398 12.384 85.102 11.927 78.434 11.927 c 74.602 11.927 72.703
 12.278 72.012 13.114 c h
108.539 12.454 m 108.25 12.743 108.438 13.489 108.957 14.114 c 109.688 
14.997 109.645 15.403 108.77 15.942 c 107 17.04 109.457 17.661 114.414 17.372
 c 119.172 17.095 121.109 15.427 119.254 13.192 c 118.52 12.309 116.828 
11.927 113.637 11.927 c 111.121 11.927 108.828 12.161 108.539 12.454 c h
105.633 24.286 m 105.102 24.927 104.793 26.095 104.945 26.887 c 105.199
 28.204 106.352 28.325 118.398 28.325 c 130.449 28.325 131.602 28.204 131.855
 26.887 c 132.492 23.591 130.832 23.126 118.398 23.126 c 109.059 23.126 
106.395 23.368 105.633 24.286 c h
105.633 24.286 m f
0.521569 0.494118 0.501961 rg
3.199 2.325 m 3.199 3.391 2.668 3.927 1.602 3.927 c 0.426 3.927 0 4.458
 0 5.927 c 0 7.341 0.434 7.927 1.488 7.927 c 2.703 7.927 3.059 8.731 3.43
 12.329 c 4.02 18.032 6.73 22.845 11.07 25.891 c 14.102 28.02 15.215 28.325
 19.926 28.325 c 24.457 28.325 25.844 27.977 28.613 26.145 c 32.93 23.286
 35.984 17.993 36.566 12.364 c 36.941 8.735 37.297 7.927 38.512 7.927 c 
39.566 7.927 40 7.341 40 5.927 c 40 4.458 39.574 3.927 38.398 3.927 c 37.332
 3.927 36.801 3.391 36.801 2.325 c 36.801 1.083 36.266 0.727 34.398 0.727
 c 32.23 0.727 31.996 0.977 31.977 3.325 c 31.957 5.149 31.359 6.356 29.977
 7.364 c 28 8.802 l 28 6.364 l 28 4.188 27.742 3.927 25.602 3.927 c 23.211
 3.927 23.199 3.942 23.199 8.567 c 23.199 13.368 22.305 15.126 19.859 15.126
 c 17.531 15.126 15.801 11.61 16.125 7.54 c 16.402 4.059 16.332 3.927 14.207
 3.927 c 12.281 3.927 12 4.235 12 6.364 c 12 8.802 l 10.023 7.364 l 8.641
 6.356 8.043 5.149 8.023 3.325 c 8.004 0.977 7.77 0.727 5.602 0.727 c 3.734
 0.727 3.199 1.083 3.199 2.325 c h
14.305 13.095 m 17.012 19.216 22.988 19.22 25.609 13.102 c 26.453 11.134
 27.336 9.524 27.57 9.524 c 27.809 9.524 28 10.759 28 12.266 c 28 15.669
 24.879 19.606 21.605 20.325 c 17.215 21.29 12.703 17.591 11.598 12.126 
c 10.828 8.305 12.441 8.887 14.305 13.095 c h
10.402 15.356 m 13.82 24.614 25.672 24.583 29.785 15.305 c 31.625 11.149
 32.672 11.872 31.211 16.294 c 29.441 21.661 22.672 25.333 17.293 23.848
 c 12.059 22.403 8 17.497 8 12.618 c 8 10.27 8.902 11.302 10.402 15.356 
c h
59.359 1.684 m 57.902 3.145 58.027 26.618 59.5 27.841 c 61.16 29.22 62.961
 28.114 63.512 25.376 c 63.781 24.028 64 18.497 64 13.083 c 64 5.2 63.75
 2.989 62.742 1.981 c 61.234 0.473 60.625 0.423 59.359 1.684 c h
71.945 1.993 m 71.184 2.911 71.125 3.626 71.73 4.595 c 72.434 5.708 74.301
 5.962 83.047 6.149 c 93.523 6.372 l 93.762 10.95 l 93.977 15.083 94.184
 15.552 95.91 15.798 c 98.477 16.157 99.172 14.786 99.188 9.345 c 99.199
 4.766 l 96.676 5.27 l 94.195 5.766 94.16 5.727 94.656 3.251 c 95.16 0.727
 l 84.078 0.727 l 74.941 0.727 72.812 0.95 71.945 1.993 c h
106.066 1.778 m 105.273 2.356 104.762 3.528 104.926 4.38 c 105.203 5.833
 106.008 5.927 118.398 5.927 c 130.793 5.927 131.598 5.833 131.875 4.38 
c 132.449 1.399 129.965 0.727 118.398 0.727 c 110.656 0.727 107.09 1.032
 106.066 1.778 c h
142.23 3.927 m 142.516 5.88 142.297 6.325 141.051 6.325 c 140.207 6.325
 139.09 5.895 138.559 5.364 c 137.812 4.618 137.602 6.634 137.602 14.427
 c 137.602 24.45 l 140.105 24.083 l 142.52 23.727 142.598 23.809 142.246
 26.22 c 141.879 28.727 l 152.777 28.727 l 160.191 28.727 163.988 28.419
 164.641 27.766 c 165.906 26.501 165.852 25.891 164.344 24.384 c 163.336
 23.376 161.113 23.126 153.145 23.126 c 143.199 23.126 l 143.199 6.325 l
 153.504 6.325 l 164.242 6.325 166.238 5.723 165.129 2.829 c 164.699 1.712
 163.02 1.524 153.254 1.524 c 141.879 1.524 l h
72.16 12.887 m 71.602 13.442 71.199 16.118 71.199 19.266 c 71.199 24.684
 l 73.707 24.184 l 76.148 23.696 76.207 23.751 75.848 26.204 c 75.477 28.727
 l 86.379 28.727 l 93.789 28.727 97.586 28.419 98.238 27.766 c 99.504 26.501
 99.453 25.891 97.941 24.384 c 96.934 23.376 94.715 23.126 86.742 23.126
 c 76.801 23.126 l 76.801 20.325 l 76.801 17.548 76.828 17.524 80.336 17.524
 c 85.062 17.524 86.398 16.907 86.398 14.727 c 86.398 13.72 85.832 12.68
 85.133 12.411 c 82.852 11.536 73.156 11.887 72.16 12.887 c h
108.539 12.454 m 108.25 12.743 108.438 13.489 108.957 14.114 c 109.688 
14.997 109.645 15.403 108.77 15.942 c 107 17.04 109.457 17.661 114.414 17.372
 c 119.172 17.095 121.109 15.427 119.254 13.192 c 118.52 12.309 116.828 
11.927 113.637 11.927 c 111.121 11.927 108.828 12.161 108.539 12.454 c h
105.633 24.286 m 105.102 24.927 104.793 26.095 104.945 26.887 c 105.199
 28.204 106.352 28.325 118.398 28.325 c 130.449 28.325 131.602 28.204 131.855
 26.887 c 132.492 23.591 130.832 23.126 118.398 23.126 c 109.059 23.126 
106.395 23.368 105.633 24.286 c h
105.633 24.286 m f
0.588235 0.313726 0.321569 rg
3.199 2.649 m 3.199 4.18 2.871 4.489 1.602 4.157 c 0.262 3.809 0.016 4.114
 0.094 6.032 c 0.145 7.294 0.344 7.731 0.535 7.001 c 0.73 6.274 1.785 5.454
 2.883 5.177 c 5.098 4.622 6.672 5.235 5.965 6.38 c 5.711 6.79 6.055 7.126
 6.727 7.126 c 7.543 7.126 7.777 7.571 7.438 8.466 c 7.027 9.528 7.238 9.684
 8.461 9.216 c 9.645 8.766 9.781 8.852 9.062 9.575 c 8.34 10.305 7.602 10.161
 5.863 8.954 c 2.281 6.473 1.602 6.177 1.602 7.079 c 1.602 7.544 2.051 7.927
 2.602 7.93 c 3.266 7.934 3.621 9.352 3.66 12.184 c 3.734 17.645 6.43 22.634
 11.07 25.891 c 14.102 28.02 15.215 28.325 19.926 28.325 c 24.457 28.325
 25.844 27.977 28.613 26.145 c 33.219 23.098 36.113 17.88 36.273 12.337 
c 36.352 9.544 36.746 7.938 37.352 7.93 c 37.875 7.93 38.527 7.567 38.801
 7.126 c 39.512 5.973 37.113 6.137 35.855 7.325 c 33.488 9.555 31.676 10.751
 32.348 9.641 c 32.855 8.798 32.578 8.68 31.102 9.126 c 29.266 9.677 29.25
 9.645 30.629 8.212 c 31.871 6.919 32.156 6.884 32.816 7.927 c 33.555 9.091
 33.734 8.833 33.941 6.325 c 34.012 5.485 34.801 5.184 36.574 5.321 c 37.969
 5.43 39.367 5.106 39.68 4.598 c 40.066 3.97 39.711 3.813 38.57 4.114 c 
37.289 4.45 36.832 4.145 36.645 2.841 c 36.473 1.641 35.738 1.052 34.199
 0.872 c 32.18 0.641 32 0.845 32 3.348 c 32 5.063 31.406 6.618 30.398 7.524
 c 29.504 8.337 28.801 9.989 28.801 11.29 c 28.801 19.309 20.098 23.649 
14.332 18.501 c 12.41 16.778 11.746 15.411 11.414 12.473 c 11.129 9.938 
10.422 8.216 9.293 7.302 c 8.066 6.305 7.668 5.212 7.852 3.325 c 8.086 0.903
 7.934 0.727 5.652 0.727 c 3.594 0.727 3.199 1.036 3.199 2.649 c h
10.703 15.384 m 12.125 18.598 13.277 19.97 15.414 20.985 c 21.418 23.833
 26.438 21.762 29.48 15.184 c 30.875 12.165 31.641 11.2 31.844 12.188 c 
33.07 18.184 24.574 25.649 18.086 24.278 c 12.934 23.184 8 17.755 8 13.165
 c 8 10.149 8.609 10.645 10.703 15.384 c h
71.961 1.97 m 71.184 2.907 71.121 3.626 71.73 4.595 c 72.434 5.708 74.301
 5.962 83.086 6.149 c 93.602 6.372 l 93.602 9.884 l 93.602 14.399 94.215
 15.927 96.039 15.927 c 98.117 15.927 98.566 14.825 98.598 9.665 c 98.625
 5.188 98.598 5.13 96.449 5.391 c 94.477 5.634 94.293 5.442 94.535 3.391
 c 94.801 1.126 l 83.918 0.903 l 74.703 0.716 72.867 0.88 71.961 1.97 c 
h
58.934 2.059 m 58.641 2.352 58.398 8.098 58.398 14.833 c 58.398 25.68 58.559
 27.153 59.801 27.79 c 62.926 29.399 63.199 28.341 63.199 14.661 c 63.199
 1.524 l 61.332 1.524 l 60.309 1.524 59.227 1.766 58.934 2.059 c h
105.207 2.313 m 104.926 2.766 104.926 3.864 105.207 4.751 c 105.699 6.294
 106.289 6.356 118.66 6.145 c 131.602 5.927 l 131.602 1.927 l 118.66 1.708
 l 110.379 1.567 105.535 1.786 105.207 2.313 c h
142.227 3.903 m 142.516 5.88 142.301 6.325 141.051 6.325 c 140.207 6.325
 139.09 5.895 138.559 5.364 c 137.812 4.618 137.602 6.634 137.602 14.427
 c 137.602 24.45 l 140.105 24.083 l 142.523 23.727 142.598 23.805 142.242
 26.239 c 141.871 28.766 l 153.137 28.548 l 164.398 28.325 l 164.398 24.325
 l 153.801 24.102 l 143.199 23.88 l 143.199 6.372 l 153.801 6.149 l 164.398
 5.927 l 164.398 1.927 l 153.137 1.704 l 141.871 1.485 l h
12 6.048 m 12 9.649 15.77 16.637 18.02 17.204 c 21.84 18.161 23.84 16.962
 25.98 12.438 c 27.09 10.091 28 7.216 28 6.048 c 28 4.266 27.648 3.927 25.793
 3.927 c 23.668 3.927 23.598 4.059 23.875 7.54 c 24.363 13.68 20.559 17.235
 17.324 13.661 c 16.453 12.7 16 10.79 16 8.063 c 16 4.184 15.875 3.927 14
 3.927 c 12.371 3.927 12 4.317 12 6.048 c h
72.602 12.79 m 71.48 13.442 71.199 14.712 71.199 19.145 c 71.199 24.684
 l 73.707 24.184 l 76.152 23.696 76.207 23.751 75.844 26.223 c 75.473 28.766
 l 86.734 28.548 l 98 28.325 l 98.508 23.927 l 76.801 23.927 l 76.801 17.61
 l 80.918 17.368 l 85.574 17.095 87.492 15.403 85.656 13.192 c 84.434 11.72
 74.941 11.427 72.602 12.79 c h
109.551 12.126 m 109.52 12.235 109.383 13.497 109.242 14.927 c 108.984 
17.524 l 113.531 17.524 l 119.391 17.524 121.406 15.845 118.742 13.184 c
 117.941 12.38 116.062 11.927 113.543 11.927 c 111.375 11.927 109.578 12.016
 109.551 12.126 c h
105.094 25.118 m 104.832 25.794 105.074 26.891 105.625 27.555 c 106.457
 28.559 108.758 28.727 119.113 28.544 c 131.602 28.325 l 131.602 24.325 
l 118.582 24.106 l 107.473 23.919 105.496 24.067 105.094 25.118 c h
105.094 25.118 m f
0.392157 0.384314 0.388235 rg
3.855 2.524 m 3.664 3.88 3.152 4.262 1.801 4.075 c 0.285 3.864 0.016 4.18
 0.094 6.075 c 0.145 7.313 0.344 7.731 0.535 7.001 c 0.73 6.274 1.785 5.454
 2.883 5.177 c 5.098 4.622 6.672 5.235 5.965 6.38 c 5.711 6.79 6.055 7.126
 6.727 7.126 c 7.543 7.126 7.777 7.571 7.438 8.466 c 7.027 9.528 7.238 9.684
 8.461 9.216 c 9.645 8.766 9.781 8.852 9.062 9.575 c 8.34 10.305 7.602 10.161
 5.863 8.954 c 2.281 6.473 1.602 6.177 1.602 7.079 c 1.602 7.544 2.141 7.927
 2.801 7.927 c 3.707 7.927 4 8.907 4 11.958 c 4 19.356 8.895 25.755 15.953
 27.587 c 26.211 30.247 36 22.618 36 11.958 c 36 8.981 36.301 7.927 37.152
 7.927 c 37.785 7.927 38.527 7.567 38.801 7.126 c 39.512 5.973 37.113 6.137
 35.855 7.325 c 33.488 9.555 31.676 10.751 32.348 9.641 c 32.855 8.798 32.578
 8.68 31.102 9.126 c 29.266 9.677 29.25 9.645 30.629 8.212 c 31.871 6.919
 32.156 6.884 32.816 7.927 c 33.234 8.587 33.637 8.766 33.711 8.325 c 33.785
 7.887 33.926 7.165 34.031 6.727 c 34.133 6.286 34.258 5.485 34.309 4.942
 c 34.379 4.184 34.859 4.169 36.422 4.88 c 37.984 5.595 38.664 5.575 39.422
 4.794 c 40.203 3.993 39.996 3.841 38.398 4.055 c 36.836 4.266 36.344 3.934
 36.145 2.524 c 35.742 -0.296 32.801 0.106 32.801 2.985 c 32.801 4.364 32.02
 5.981 30.801 7.126 c 29.566 8.286 28.801 9.887 28.801 11.305 c 28.801 19.309
 20.09 23.641 14.332 18.501 c 12.41 16.778 11.746 15.411 11.414 12.473 c
 11.109 9.759 10.445 8.247 9.094 7.184 c 7.828 6.188 7.199 4.872 7.199 3.212
 c 7.199 1.29 6.852 0.727 5.656 0.727 c 4.664 0.727 4.02 1.368 3.855 2.524
 c h
10.703 15.384 m 14.812 24.677 25.117 24.673 29.371 15.376 c 31.488 10.755
 33 10.298 32.035 14.567 c 31.121 18.618 29.008 21.282 25.281 23.087 c 20.941
 25.188 17.98 25.141 14.043 22.911 c 10.656 20.993 8.484 17.891 7.617 13.727
 c 6.754 9.606 8.582 10.587 10.703 15.384 c h
71.945 1.993 m 71.184 2.911 71.125 3.626 71.73 4.595 c 72.434 5.708 74.301
 5.962 83.086 6.149 c 93.602 6.372 l 93.602 9.884 l 93.602 14.399 94.215
 15.927 96.039 15.927 c 98.074 15.927 98.531 14.891 98.676 9.962 c 98.801
 5.688 l 96.074 6.134 l 93.352 6.575 l 93.824 3.649 l 94.301 0.727 l 83.648
 0.727 l 74.906 0.727 72.809 0.954 71.945 1.993 c h
58.934 2.059 m 58.152 2.841 58.391 24.044 59.199 25.927 c 59.844 27.423
 59.891 27.403 59.945 25.634 c 59.988 24.145 60.344 23.829 61.602 24.157
 c 63.145 24.563 63.199 24.18 63.199 13.052 c 63.199 1.524 l 61.332 1.524
 l 60.309 1.524 59.227 1.766 58.934 2.059 c h
105.207 2.313 m 104.926 2.766 104.926 3.864 105.207 4.751 c 105.699 6.294
 106.289 6.356 118.66 6.145 c 131.602 5.927 l 131.602 1.927 l 118.66 1.708
 l 110.379 1.567 105.535 1.786 105.207 2.313 c h
142.242 4.012 m 142.598 6.446 142.523 6.524 140.105 6.173 c 137.602 5.802
 l 137.602 24.684 l 139.629 23.915 l 141.918 23.044 142.906 24.309 142.16
 27.161 c 141.75 28.723 142.059 28.762 153.07 28.548 c 164.398 28.325 l 
164.398 24.325 l 153.801 24.102 l 143.199 23.88 l 143.199 6.372 l 153.801
 6.149 l 164.398 5.927 l 164.398 1.927 l 153.137 1.704 l 141.871 1.485 l
 h
12 5.86 m 12 6.923 12.93 9.645 14.066 11.907 c 17.738 19.22 22.262 19.22
 25.934 11.907 c 28.66 6.481 28.68 3.927 26 3.927 c 24.098 3.927 24 4.149
 24 8.567 c 24 13.684 23.121 15.126 20 15.126 c 16.879 15.126 16 13.684 
16 8.567 c 16 4.149 15.902 3.927 14 3.927 c 12.418 3.927 12 4.329 12 5.86
 c h
72.602 12.79 m 71.477 13.442 71.199 14.716 71.199 19.192 c 71.199 24.606
 71.254 24.755 72.863 23.891 c 73.777 23.403 75.035 23.2 75.664 23.438 c
 77.059 23.977 77.148 26.458 75.816 27.79 c 75.039 28.567 77.258 28.723 
86.418 28.548 c 98 28.325 l 98.508 23.927 l 76.801 23.927 l 76.801 17.61
 l 80.918 17.368 l 85.574 17.095 87.492 15.403 85.656 13.192 c 84.434 11.72
 74.941 11.427 72.602 12.79 c h
109.551 12.126 m 109.52 12.235 109.383 13.497 109.242 14.927 c 108.984 
17.524 l 113.531 17.524 l 119.391 17.524 121.406 15.845 118.742 13.184 c
 117.941 12.38 116.062 11.927 113.543 11.927 c 111.375 11.927 109.578 12.016
 109.551 12.126 c h
105.094 25.118 m 104.832 25.794 105.074 26.891 105.625 27.555 c 106.457
 28.559 108.758 28.727 119.113 28.544 c 131.602 28.325 l 131.602 24.325 
l 118.582 24.106 l 107.473 23.919 105.496 24.067 105.094 25.118 c h
105.094 25.118 m f
0.47451 0.117647 0.156863 rg
4 2.325 m 4 3.208 4.152 3.927 4.336 3.927 c 4.52 3.927 5.238 4.145 5.934
 4.411 c 6.891 4.778 7.199 4.384 7.199 2.813 c 7.199 1.259 6.789 0.727 5.602
 0.727 c 4.535 0.727 4 1.259 4 2.325 c h
32.801 2.727 m 32.801 4.903 32.867 4.958 34.734 4.239 c 36.613 3.52 36.348
 0.727 34.398 0.727 c 33.227 0.727 32.801 1.259 32.801 2.727 c h
59.309 14.47 m 59.367 21.649 59.578 26.68 59.773 25.649 c 60.039 24.251
 60.527 23.876 61.688 24.18 c 63.184 24.571 63.234 24.141 63.023 13.255 
c 62.805 2.192 62.758 1.919 61 1.669 c 59.199 1.415 l h
72 3.524 m 72 5.524 l 93.414 5.524 l 94.18 1.524 l 72 1.524 l h
105.242 2.903 m 104.199 5.626 106.895 6.325 118.398 6.325 c 129.879 6.325
 132.801 5.563 131.754 2.841 c 131.316 1.696 129.594 1.524 118.512 1.524
 c 107.191 1.524 105.711 1.68 105.242 2.903 c h
142.707 2.766 m 142.977 3.477 143.199 4.567 143.199 5.192 c 143.199 6.11
 145.066 6.325 153 6.313 c 163.352 6.302 165.137 5.86 164.668 3.43 c 164.406
 2.055 163.41 1.907 153.297 1.704 c 143.379 1.505 142.262 1.614 142.707 
2.766 c h
12 5.86 m 12 6.923 12.93 9.645 14.066 11.907 c 17.738 19.22 22.262 19.22
 25.934 11.907 c 28.66 6.481 28.68 3.927 26 3.927 c 24.098 3.927 24 4.149
 24 8.567 c 24 13.684 23.121 15.126 20 15.126 c 16.879 15.126 16 13.684 
16 8.567 c 16 4.149 15.902 3.927 14 3.927 c 12.418 3.927 12 4.329 12 5.86
 c h
96.199 6.18 m 94.586 6.411 94.398 6.884 94.398 10.805 c 94.398 14.036 94.727
 15.302 95.652 15.657 c 97.715 16.45 98.5 14.805 98.242 10.243 c 98.02 6.282
 97.852 5.946 96.199 6.18 c h
137.602 15.196 m 137.602 24.587 l 142.398 22.774 l 142.398 6.509 l 140 
6.157 l 137.602 5.802 l h
4 12.329 m 4 19.337 9.062 25.798 15.953 27.587 c 26.059 30.208 36 22.61
 36 12.259 c 36 8.598 35.969 8.552 34.246 9.696 c 33.164 10.415 32.371 11.907
 32.18 13.595 c 31.723 17.673 29.156 21.212 25.316 23.067 c 21.012 25.153
 18.387 25.157 14.336 23.095 c 10.688 21.231 8.328 17.848 7.574 13.384 c
 7.27 11.559 6.434 9.973 5.527 9.489 c 4.129 8.739 4 8.973 4 12.329 c h
72 18.184 m 72 23.606 72.035 23.696 73.957 23.329 c 75.547 23.028 75.961
 22.407 76.156 20.04 c 76.398 17.126 l 81.199 16.727 l 85.332 16.38 86 16.102
 86 14.727 c 86 13.266 85.391 13.106 79 12.895 c 72 12.665 l h
109.883 14.723 m 109.992 16.614 110.258 16.723 114.602 16.723 c 118.973
 16.727 119.199 16.626 119.199 14.727 c 119.199 12.817 118.98 12.727 114.484
 12.727 c 109.957 12.727 109.773 12.805 109.883 14.723 c h
76.609 25.903 m 76.223 27.927 l 87.367 27.927 l 98.465 27.927 98.512 27.919
 98.254 26.126 c 98.008 24.376 97.703 24.321 87.496 24.102 c 76.996 23.88
 l h
105.266 25.239 m 104.98 25.985 105.059 26.903 105.434 27.282 c 105.812 
27.657 111.855 27.868 118.859 27.747 c 130.992 27.536 131.602 27.45 131.602
 25.927 c 131.602 24.399 130.992 24.317 118.691 24.106 c 107.184 23.911 
105.73 24.032 105.266 25.239 c h
143.199 24.637 m 143.199 25.055 142.98 25.966 142.715 26.661 c 142.285 
27.778 143.559 27.927 153.57 27.927 c 164.875 27.927 164.91 27.919 164.656
 26.126 c 164.406 24.376 164.105 24.321 153.801 24.102 c 147.504 23.97 143.199
 24.188 143.199 24.637 c h
143.199 24.637 m f
0.0941176 0.0901961 0.101961 rg
59.199 12.47 m 59.199 23.524 l 61.223 23.641 l 63.242 23.759 l 63.023 12.845
 l 62.805 2.208 62.754 1.919 61 1.669 c 59.207 1.415 59.199 1.462 59.199
 12.47 c h
72 3.524 m 72 5.524 l 93.414 5.524 l 94.18 1.524 l 72 1.524 l h
105.242 2.903 m 104.199 5.626 106.895 6.325 118.398 6.325 c 129.879 6.325
 132.801 5.563 131.754 2.841 c 131.316 1.696 129.594 1.524 118.512 1.524
 c 107.191 1.524 105.711 1.68 105.242 2.903 c h
142.707 2.766 m 142.977 3.477 143.199 4.567 143.199 5.192 c 143.199 6.11
 145.066 6.325 153 6.313 c 163.352 6.302 165.137 5.86 164.668 3.43 c 164.406
 2.055 163.41 1.907 153.297 1.704 c 143.379 1.505 142.262 1.614 142.707 
2.766 c h
96.199 6.18 m 94.586 6.411 94.398 6.884 94.398 10.805 c 94.398 14.036 94.727
 15.302 95.652 15.657 c 97.715 16.45 98.5 14.805 98.242 10.243 c 98.02 6.282
 97.852 5.946 96.199 6.18 c h
137.602 14.95 m 137.602 22.962 137.758 24.036 138.867 23.61 c 139.562 23.345
 140.641 23.126 141.266 23.126 c 142.172 23.126 142.398 21.458 142.398 14.817
 c 142.398 6.509 l 140 6.157 l 137.602 5.802 l h
72 18.184 m 72 23.606 72.035 23.696 73.957 23.329 c 75.547 23.028 75.961
 22.407 76.156 20.04 c 76.398 17.126 l 81.199 16.727 l 85.332 16.38 86 16.102
 86 14.727 c 86 13.266 85.391 13.106 79 12.895 c 72 12.665 l h
109.883 14.723 m 109.992 16.614 110.258 16.723 114.602 16.723 c 118.973
 16.727 119.199 16.626 119.199 14.727 c 119.199 12.817 118.98 12.727 114.484
 12.727 c 109.957 12.727 109.773 12.805 109.883 14.723 c h
76.609 25.903 m 76.223 27.927 l 87.367 27.927 l 98.465 27.927 98.512 27.919
 98.254 26.126 c 98.008 24.376 97.703 24.321 87.496 24.102 c 76.996 23.88
 l h
105.266 25.239 m 104.98 25.985 105.059 26.903 105.434 27.282 c 105.812 
27.657 111.855 27.868 118.859 27.747 c 130.992 27.536 131.602 27.45 131.602
 25.927 c 131.602 24.399 130.992 24.317 118.691 24.106 c 107.184 23.911 
105.73 24.032 105.266 25.239 c h
143.008 25.903 m 142.621 27.927 l 153.766 27.927 l 164.867 27.927 164.91
 27.919 164.656 26.126 c 164.406 24.376 164.102 24.321 153.898 24.102 c 
143.395 23.88 l h
143.008 25.903 m f
Q Q
showpage
%%Trailer
end restore
%%EOF
